Final project tobak
…
Using “anti_join” before “count” we can sort out the stop words. We
did this to see how frequent the word “tobak” came up in the
newspapers:

Tobak_tidy %>% 
  anti_join(stopord_1800) %>% 
  count(word, sort = TRUE)

## Joining with `by = join_by(word)`

## # A tibble: 1,460,940 × 2
##    word      n
##    <chr> <int>
##  1 tobak 23393
##  2 kr    20539
##  3 ca    19818
##  4 mig   12669
##  5 vg    11487
##  6 sal   10158
##  7 hos   10125
##  8 selv   9446
##  9 cn     9205
## 10 anden  8645
## # ℹ 1,460,930 more rows
…
